CREATE EXTENSION IF NOT EXISTS anon CASCADE;
NOTICE:  installing required extension "tsm_system_rows"
NOTICE:  installing required extension "pgcrypto"
-- test data
 
CREATE TABLE test_shuffle (
	id SERIAL,
	key   TEXT,
	value  INT
);
INSERT INTO test_shuffle
VALUES 
	( 1, 'a', 40 ),
	( 2, 'b', 70 ),
    ( 3, 'c', 12 ),
    ( 4, 'd', 33 ),
    ( 5, 'e', 71 ),
    ( 6, 'f', 21 ),
    ( 7, 'g', 29 ),
    ( 8, 'h', 22 ),
    ( 9, 'i', 27 ),
    ( 10, 'j', 51 )
;
CREATE TABLE test_shuffle_backup 
AS SELECT * FROM test_shuffle;
SELECT anon.shuffle_column('test_shuffle','value','key');
 shuffle_column 
----------------
 t
(1 row)

-- TEST 1 : `shuffle()` does not modify the sum
SELECT sum(a.value) = sum(b.value) 
FROM 
	test_shuffle a,
	test_shuffle_backup b
;
 ?column? 
----------
 t
(1 row)

-- TEST 2 : `shuffle()` does not modify the average
SELECT avg(a.value) = avg(b.value) 
FROM 
    test_shuffle a,
    test_shuffle_backup b
;
 ?column? 
----------
 t
(1 row)

DROP EXTENSION anon CASCADE;
DROP TABLE test_shuffle;
DROP TABLE test_shuffle_backup;
